<?xml version="1.0" encoding="UTF-8" standalone="no"?>
<svg width="60px" height="60px" viewBox="0 0 60 60" version="1.1" xmlns="http://www.w3.org/2000/svg" xmlns:xlink="http://www.w3.org/1999/xlink">
    <!-- Generator: sketchtool 39.1 (31720) - http://www.bohemiancoding.com/sketch -->
    <title>59167B2F-5B22-4C3D-B0FE-CCF1EFBD4F35</title>
    <desc>Created with sketchtool.</desc>
    <defs>
        <path d="M48.3572777,32.5671139 L21.3620172,47.6823398 C18.9529416,49.031233 17,47.8884425 17,45.1194048 L17,15.130049 C17,12.3656859 18.9457908,11.2142169 21.3620172,12.5671139 L48.3572777,27.6823398 C50.7663532,29.031233 50.7735041,31.2142169 48.3572777,32.5671139 Z" id="path-1"></path>
        <mask id="mask-2" maskContentUnits="userSpaceOnUse" maskUnits="objectBoundingBox" x="0" y="0" width="33.1667669" height="36.2485169" fill="white">
            <use xlink:href="#path-1"></use>
        </mask>
    </defs>
    <g id="Page-1" stroke="none" stroke-width="1" fill="none" fill-rule="evenodd">
        <g id="01_Desktop" transform="translate(-450.000000, -1441.000000)">
            <g id="Ico1" transform="translate(450.000000, 1441.000000)">
                <rect id="Rectangle-1057-Copy-2" fill="#FFFFFF" x="0" y="0" width="60" height="60" rx="30"></rect>
                <use id="Triangle-1" stroke="#3399FF" mask="url(#mask-2)" stroke-width="4" xlink:href="#path-1"></use>
            </g>
        </g>
    </g>
</svg>